%YAML 1.1
%TAG !u! tag:unity3d.com,2011:
--- !u!114 &11400000
MonoBehaviour:
  m_ObjectHideFlags: 0
  m_CorrespondingSourceObject: {fileID: 0}
  m_PrefabInstance: {fileID: 0}
  m_PrefabAsset: {fileID: 0}
  m_GameObject: {fileID: 0}
  m_Enabled: 1
  m_EditorHideFlags: 0
  m_Script: {fileID: 11500000, guid: fcb675c6c9e90ed4cba43300cc727c14, type: 3}
  m_Name: Question 3
  m_EditorClassIdentifier: 
  question: What does the dog say?
  answers:
  - meow
  - moo
  - bark
  - blurp
  correctAnswerIndex: 2
